Project 1
…
#Joining
#Because I only wanted data for countries in both sets, I used inner_join
airpollifeexpec<-inner_join(lifeexpec,airpol,by="Country")

#Wrangling
#Decided to take a look at the relationship between pollution and life expectancy
airpollifeexpec%>%select(`Both Sexes' Life expectancy at birth in years`,`Total Concentrations of fine particulate matter (PM2.5)`,`Continent`)%>%group_by(Continent)%>%arrange(`Both Sexes' Life expectancy at birth in years`)

## # A tibble: 183 x 3
## # Groups:   Continent [6]
##    `Both Sexes' Life expectancy a~ `Total Concentrations of fine part~ Continent
##                              <dbl>                               <dbl> <chr>    
##  1                            52.9                                27.8 Africa   
##  2                            53                                  49.5 Africa   
##  3                            53.1                                20.6 Africa   
##  4                            54.3                                53   Africa   
##  5                            54.6                                23.7 Africa   
##  6                            55.2                                48.7 Africa   
##  7                            55.4                                29.5 Africa   
##  8                            57.7                                16.3 Africa   
##  9                            58                                  31.2 Africa   
## 10                            58.1                                65.3 Africa   
## # ... with 173 more rows
…
## # A tibble: 1 x 12
##   `Both Sexes' Li~ `Male Life expe~ `Female Life ex~ `Both Sexes' Li~
##              <int>            <int>            <int>            <int>
## 1              128              134              140               93
## # ... with 8 more variables: `Male Life expectancy at age 60 in years` <int>,
## #   `Female Life expectancy at age 60 in years` <int>, Country <int>, `Total
## #   Concentrations of fine particulate matter (PM2.5)` <int>, `Urban
## #   Concentrations of fine particulate matter (PM2.5)` <int>, `Rural
## #   Concentrations of fine particulate matter (PM2.5)` <int>, Continent <int>,
## #   `Sex with higher life expectancy at birth` <int>

#Looked at Asian Countries
airpollifeexpec %>% filter( Continent == "Asia")

## # A tibble: 48 x 12
##    `Both Sexes' Li~ `Male Life expe~ `Female Life ex~ `Both Sexes' Li~
##               <dbl>            <dbl>            <dbl>            <dbl>
##  1             62.7             61               64.5             16.3
##  2             74.8             71.2             78.1             19.6
##  3             73.1             70.3             75.7             18.9
##  4             79.1             78.6             79.6             21.7
##  5             72.7             71.1             74.4             19.6
##  6             70.6             70.4             70.8             20.7
##  7             76.4             75.3             77.6             20.4
##  8             69.4             67.3             71.2             17.4
##  9             76.4             75               77.9             19.9
## 10             80.7             78.4             83.1             22.8
## # ... with 38 more rows, and 8 more variables: `Male Life expectancy at age 60
## #   in years` <dbl>, `Female Life expectancy at age 60 in years` <dbl>,
## #   Country <chr>, `Total Concentrations of fine particulate matter
## #   (PM2.5)` <dbl>, `Urban Concentrations of fine particulate matter
## #   (PM2.5)` <dbl>, `Rural Concentrations of fine particulate matter
## #   (PM2.5)` <dbl>, Continent <chr>, `Sex with higher life expectancy at
## #   birth` <chr>
…
